{"data":[{"id":1,"name":"Alice Martinez","specialty":"Postpartum Nurse","availability":{"monday":["16-23"],"sunday":["17-21"]}},{"id":42,"name":"Bob King","specialty":"Postpartum Nurse","availability":{"monday":["6-13"],"sunday":["10-16"],"tuesday":["10-16"],"saturday":["11-16"]}}],"pagination":{"total":21,"page":1,"limit":2,"totalPages":11},"debug":{"originalCount":50,"afterFiltering":21,"dayFilter":"monday"}}