{"data":[{"id":41,"name":"Alice Anderson","specialty":"Lactation Consultant","availability":{"friday":["9-17"],"tuesday":["15-22"],"thursday":["15-19"]}},{"id":1,"name":"Alice Martinez","specialty":"Postpartum Nurse","availability":{"monday":["16-23"],"sunday":["17-21"]}}],"pagination":{"total":50,"page":1,"limit":2,"totalPages":25}}