{"data":[{"id":1,"name":"Alice Martinez","specialty":"Postpartum Nurse","availability":{"monday":["16-23"],"sunday":["17-21"]}},{"id":21,"name":"Alice Taylor","specialty":"Postpartum Nurse","availability":{"friday":["13-22"],"sunday":["15-24"],"tuesday":["8-15"],"thursday":["16-20"],"wednesday":["8-12"]}},{"id":39,"name":"Ava Lopez","specialty":"Doula","availability":{"friday":["10-16"],"sunday":["17-21"],"tuesday":["7-16"],"saturday":["15-22"],"wednesday":["13-21"]}}],"pagination":{"total":30,"page":1,"limit":3,"totalPages":10},"debug":{"originalCount":50,"afterFiltering":30,"dayFilter":"sunday"}}