{"data":[{"id":41,"name":"Alice Anderson","specialty":"Lactation Consultant","availability":{"friday":["9-17"],"tuesday":["15-22"],"thursday":["15-19"]}}],"pagination":{"total":50,"page":1,"limit":1,"totalPages":50}}