{"data":[{"id":41,"name":"Alice Anderson","specialty":"Lactation Consultant","availability":{"friday":["9-17"],"tuesday":["15-22"],"thursday":["15-19"]}},{"id":21,"name":"Alice Taylor","specialty":"Postpartum Nurse","availability":{"friday":["13-22"],"sunday":["15-24"],"tuesday":["8-15"],"thursday":["16-20"],"wednesday":["8-12"]}},{"id":39,"name":"Ava Lopez","specialty":"Doula","availability":{"friday":["10-16"],"sunday":["17-21"],"tuesday":["7-16"],"saturday":["15-22"],"wednesday":["13-21"]}}],"pagination":{"total":44,"page":1,"limit":3,"totalPages":15}}