{"data":[{"id":42,"name":"Bob King","specialty":"Postpartum Nurse","availability":{"monday":["6-13"],"sunday":["10-16"],"tuesday":["10-16"],"saturday":["11-16"]}},{"id":2,"name":"Bob Rodriguez","specialty":"Neonatal Nurse","availability":{"tuesday":["17-25"],"saturday":["15-21"],"thursday":["6-11"]}},{"id":24,"name":"David Brown","specialty":"Lactation Consultant","availability":{"monday":["6-12"],"sunday":["15-22"],"tuesday":["16-25"],"saturday":["14-18"],"thursday":["17-25"]}}],"pagination":{"total":15,"page":1,"limit":3,"totalPages":5}}